<svg width="16" height="16" viewBox="0 0 16 16" fill="none" xmlns="http://www.w3.org/2000/svg">
<path d="M5.79633 16C6.78202 16 7.58108 15.2032 7.58108 14.2204C7.58108 13.2375 6.78202 12.4408 5.79633 12.4408C4.81064 12.4408 4.01159 13.2375 4.01159 14.2204C4.01159 15.2032 4.81064 16 5.79633 16Z" fill="black"/>
<path d="M12.4768 16C13.4625 16 14.2616 15.2032 14.2616 14.2204C14.2616 13.2375 13.4625 12.4408 12.4768 12.4408C11.4911 12.4408 10.6921 13.2375 10.6921 14.2204C10.6921 15.2032 11.4911 16 12.4768 16Z" fill="black"/>
<path d="M13.3283 8.29395L15.899 3.15105C16.0463 2.84084 16.03 2.49798 15.8662 2.22043C15.6861 1.94287 15.3914 1.77961 15.0475 1.77961H3.89697L3.66774 1.04491C3.47125 0.44082 2.86542 0 2.22684 0H0V1.77961H2.03035L4.8139 10.5144C5.01039 11.1185 5.59985 11.5593 6.23843 11.5593H14.2616V9.77968H6.45129L6.17293 8.89804H12.3786C12.7716 8.88171 13.1646 8.65314 13.3283 8.29395Z" fill="black"/>
</svg>
