<svg width="29" height="28" viewBox="0 0 29 28" fill="none" xmlns="http://www.w3.org/2000/svg">
<rect x="0.632935" width="27.5443" height="27.5443" fill="#2D6E9D"/>
<path d="M20.2376 19.7929C19.5014 19.7745 18.7827 19.7745 18.0465 19.7929C17.8887 19.7929 17.8537 19.7562 17.8537 19.5912C17.8537 18.2345 17.8537 16.8594 17.8537 15.5027C17.8537 15.191 17.8361 14.8793 17.7485 14.586C17.4856 13.6326 16.4338 13.2842 15.6801 13.9259C15.2769 14.2559 15.1192 14.7143 15.1192 15.2643C15.1192 16.5477 15.1192 17.8311 15.1192 19.1145C15.1192 19.2795 15.1017 19.4445 15.1192 19.6279C15.1367 19.7745 15.0666 19.8112 14.9439 19.7929C14.1902 19.7929 13.4539 19.7929 12.7002 19.7929C12.56 19.7929 12.5249 19.7562 12.5249 19.6095C12.5425 18.4545 12.5425 17.2994 12.5425 16.126C12.5425 14.696 12.5425 13.2659 12.5249 11.8542C12.5249 11.6892 12.56 11.6525 12.7002 11.6525C13.4539 11.6525 14.1902 11.6525 14.9439 11.6525C15.0841 11.6525 15.1192 11.6892 15.1192 11.8358C15.1192 12.1292 15.1192 12.4225 15.1192 12.7709C15.1718 12.7159 15.1893 12.6975 15.2068 12.6792C15.8904 11.6342 16.8545 11.3408 17.9939 11.5241C19.3086 11.7442 20.1499 12.6975 20.3603 14.1643C20.4129 14.5126 20.4304 14.861 20.4304 15.2093C20.4304 16.676 20.4304 18.1244 20.4304 19.5912C20.4304 19.7379 20.3953 19.7929 20.2376 19.7929Z" fill="white"/>
<path d="M11.1226 15.7227C11.1226 17.0061 11.1226 18.2895 11.1226 19.5729C11.1226 19.7379 11.0876 19.7929 10.9298 19.7929C10.1936 19.7745 9.45739 19.7929 8.72118 19.7929C8.58095 19.7929 8.54589 19.7562 8.54589 19.6095C8.54589 17.0244 8.54589 14.421 8.54589 11.8358C8.54589 11.7075 8.58095 11.6525 8.72118 11.6525C9.47491 11.6525 10.2287 11.6525 10.9824 11.6525C11.1401 11.6525 11.1577 11.7075 11.1577 11.8542C11.1226 13.1376 11.1226 14.421 11.1226 15.7227Z" fill="white"/>
<path d="M11.2453 9.52572C11.07 10.2591 10.3514 10.6808 9.5275 10.5341C8.65107 10.3874 8.16026 9.48905 8.47578 8.60901C8.68612 8.05899 9.19446 7.72897 9.84302 7.74731C10.8246 7.72897 11.4732 8.55401 11.2453 9.52572Z" fill="white"/>
</svg>
